<?xml version="1.0" encoding="utf-8"?>
<!-- Generator: Adobe Illustrator 25.2.1, SVG Export Plug-In . SVG Version: 6.00 Build 0)  -->
<svg version="1.1" id="Layer_1" xmlns:svgjs="http://svgjs.com/svgjs"
	 xmlns="http://www.w3.org/2000/svg" xmlns:xlink="http://www.w3.org/1999/xlink" x="0px" y="0px" viewBox="0 0 37.5 37.5"
	 style="enable-background:new 0 0 37.5 37.5;" xml:space="preserve">
<style type="text/css">
	.st0{fill:#FFFFFF;}
</style>
<g>
	<g>
		<g>
			<path class="st0" d="M34.5,25.2H3c-1,0-1.8-0.8-1.8-1.8v-17c0-1,0.8-1.8,1.8-1.8h31.6c1,0,1.8,0.8,1.8,1.8v17
				C36.3,24.4,35.5,25.2,34.5,25.2z M3,6.1c-0.2,0-0.3,0.2-0.3,0.3v17c0,0.2,0.2,0.3,0.3,0.3h31.6c0.2,0,0.3-0.2,0.3-0.3v-17
				c0-0.2-0.2-0.3-0.3-0.3H3z"/>
		</g>
		<g>
			<path class="st0" d="M15,20.4c-0.2-0.1-0.4-0.4-0.4-0.6V10c0-0.3,0.2-0.5,0.4-0.6c0.2-0.1,0.5-0.1,0.8,0.1l6.8,4.9
				c0.2,0.1,0.3,0.4,0.3,0.6c0,0.2-0.1,0.5-0.3,0.6c0,0-5.1,3.6-6.8,4.9C15.6,20.5,15.4,20.6,15,20.4z M16.1,11.5v6.9l4.9-3.5
				L16.1,11.5z"/>
		</g>
		<path class="st0" d="M35.6,29.3H21.8c-0.3-1.2-1.4-2.1-2.8-2.1c-1.3,0-2.5,0.9-2.8,2.1H1.9c-0.4,0-0.7,0.3-0.7,0.7
			c0,0.4,0.3,0.7,0.7,0.7h14.3c0.3,1.2,1.4,2.1,2.8,2.1c1.3,0,2.5-0.9,2.8-2.1h13.9c0.4,0,0.7-0.3,0.7-0.7
			C36.3,29.6,36,29.3,35.6,29.3z M19,31.4c-0.8,0-1.4-0.6-1.4-1.4c0-0.8,0.6-1.4,1.4-1.4c0.8,0,1.4,0.6,1.4,1.4
			C20.4,30.8,19.8,31.4,19,31.4z"/>
	</g>
</g>
</svg>
